{
  "AppVersion": "1.0.0.0",
  "Version": "1.0.0.0",
  "Title": "Space Train",
  "Thumbnail": "thumbnail.jpg",
  "Preview": "preview.gif",
  "Description": "Space Train - 12 Hours - 4K Ultra HD 60fps",
  "Author": "VISUALDON",
  "License": null,
  "Contact": "https://www.youtube.com/@visualdon",
  "Type": 4,
  "Source": "https://www.youtube.com/watch?v=lyd2GrXMmAo",
  "Arguments": null
}