{
  "AppVersion": "1.0.0.0",
  "Version": "1.0.0.0",
  "Title": "Wonderful Landscape",
  "Thumbnail": "thumbnail.jpg",
  "Preview": "preview.gif",
  "Description": "4K Wonderful Landscape",
  "Author": "WallpaperEngineer",
  "License": null,
  "Contact": "https://www.youtube.com/@WallpaperEngineer",
  "Type": 4,
  "Source": "https://www.youtube.com/watch?v=m4P9XkF9gsI",
  "Arguments": null
}