{
  "AppVersion": "1.0.0.0",
  "Version": "1.0.0.0",
  "Title": "Earth on a Piece of Paper",
  "Thumbnail": "thumbnail.jpg",
  "Preview": "preview.gif",
  "Description": "SATELLITE I 8K HDR I PLANET EARTH ON A PIECE OF PAPER I MACRO COLORS",
  "Author": "RomanDeGiuli",
  "License": null,
  "Contact": "https://www.youtube.com/@RomanDeGiuli",
  "Type": 4,
  "Source": "https://www.youtube.com/watch?v=J4pKA-U8p6g",
  "Arguments": null
}