{
  "Categories": {
    "Abstract": {
      "Wallpapers": {
        "Earth on a Piece of Paper-1": {
          "Source": "src/Abstract",
          "Cover": "thumbnail.jpg",
          "Live": "preview.gif"
        }
      }
    },
    "Ambience": {
      "Wallpapers": {
        "Calming Ocean Sunset-1": {
          "Source": "src/Ambience",
          "Cover": "ocean.jpg",
          "Live": "sunset.gif"
        },
        "Cozy Cabin Rain and Fireplace-1": {
          "Source": "src/Ambience",
          "Cover": "cover.jpg",
          "Live": "live.gif"
        }
      }
    },
    "Animals": {
      "Wallpapers": {
        "Cat vs Ball of Wool-1": {
          "Source": "src/Animal",
          "Cover": "thumbnail.jpg",
          "Live": "preview.gif"
        }
      }
    },
    "Animation": {
      "Wallpapers": {
        "Big Buck Bunny-1": {
          "Source": "src/Animation",
          "Cover": "logo.jpg",
          "Live": "wakeup.gif"
        }
      }
    },
    "Anime": {
      "Wallpapers": {
        "Agatsuma Zenitsu-1": {
          "Source": "src/Anime",
          "Cover": "cover.jpg",
          "Live": "live.gif"
        }
      }
    },
    "Architecture and Buildings": {},
    "Art and Abstract": {},
    "Artworks": {},
    "Bard": {},
    "Black and White": {},
    "Cartoon and Comics": {},
    "Cities and Places": {},
    "Clouds and Skies": {},
    "Colorful Gradients": {},
    "Comic Books": {},
    "Digital Art": {},
	"Dynamic": {
      "Wallpapers": {
        "Forest-1": {
          "Source": "src/Dynamic",
          "Cover": "thumbnail.jpg",
          "Live": "preview.gif"
        },
        "Lakeside-1": {
          "Source": "src/Dynamic",
          "Cover": "thumbnail.jpg",
          "Live": "preview.gif"
        },
        "London-1": {
          "Source": "src/Dynamic",
          "Cover": "thumbnail.jpg",
          "Live": "preview.gif"
        }
      }
    },
    "Enchanted Forests": {},
    "Fantasy": {
      "Wallpapers": {
        "Wonderful Landscape-1": {
          "Source": "src/Fantasy",
          "Cover": "thumbnail.jpg",
          "Live": "preview.gif"
        }
      }
    },
    "Film and TV": {},
    "Food and Drinks": {},
    "Galaxy": {},
    "Game": {
      "Wallpapers": {
        "Night City-1": {
          "Source": "src/Game",
          "Cover": "ncity.jpg",
          "Live": "nsky.gif"
        },
        "Night City-2": {
          "Source": "src/Game",
          "Cover": "skycity.jpg",
          "Live": "livesky.gif"
        }
      }
    },
    "Geometric Patterns": {},
    "Holidays and Seasons": {},
    "Horror and Halloween": {},
    "Inspirational Quotes": {},
    "Kids and Cartoon": {},
    "Landscape": {},
    "Line Art": {},
    "Medieval": {},
    "Minimalist": {},
    "Music": {
      "Wallpapers": {
        "Phoenix-1": {
          "Source": "src/Music",
          "Cover": "thumbnail.jpg",
          "Live": "preview.gif"
        },
        "Lost Chapter-1": {
          "Source": "src/Music",
          "Cover": "thumbnail.jpg",
          "Live": "preview.gif"
        }
      }
    },
    "Nature": {},
    "Nightscapes": {},
    "Patterns and Textures": {},
    "Retro": {},
    "RGB": {
      "Wallpapers": {
        "Asus ROG-1": {
          "Source": "src/RGB",
          "Cover": "look.jpg",
          "Live": "peek.gif"
        }
      }
    },
    "Sky": {
      "Wallpapers": {
        "Storm in Sky-1": {
          "Source": "src/Sky",
          "Cover": "thundersky.jpg",
          "Live": "livestorm.gif"
        }
      }
    },
    "Space": {
      "Wallpapers": {
        "Floating in Space-1": {
          "Source": "src/Space",
          "Cover": "thumbnail.jpg",
          "Live": "preview.gif"
        },
        "Floating in Space-2": {
          "Source": "src/Space",
          "Cover": "thumbnail.jpg",
          "Live": "preview.gif"
        },
        "Space Train-1": {
          "Source": "src/Space",
          "Cover": "thumbnail.jpg",
          "Live": "preview.gif"
        }
      }
    },
    "Sports": {},
    "Superheroes": {},
    "Tavern": {},
    "Technology": {},
    "Underwater and Marine": {},
    "Vehicles": {
      "Wallpapers": {
        "Nissan Skyline-1": {
          "Source": "src/Vehicle",
          "Cover": "thumbnail.jpg",
          "Live": "preview.gif"
        }
      }
    },
    "Vintage": {}
  }
}